Merit,Run_Time
0.19553754665000464,32.8521491
0.19664223651947016,32.1069074
0.19513613024109452,36.1737272
0.1943692615193757,34.9202794
0.19429348382943334,34.4002984
0.1927104064965245,34.2418068
0.19564191124837965,34.6171341
0.19403428103889483,32.9536469
0.1962392783654554,33.1547963
0.19502273632284137,34.3666966
0.195856732388924,34.2755329
0.19526997940907082,35.9447898
0.19764169301857068,33.2634491
0.19459965019088038,36.872226
0.19732109002238107,33.5946203
0.19443150740142492,34.7453226
0.19299033889724904,35.2659159
0.19498704711593334,33.5831743
0.19609364096222964,35.5513838
0.19607537384883872,32.4456554
0.19505521330543835,36.9994311
0.19431641477562572,35.269888
0.19439465431993275,35.9874496
0.1959148465846524,34.148787
0.19266439325196322,43.8639179
0.18880025649028798,39.3451929
0.18945893784594572,37.8139487
0.19083276298433025,34.3957292
0.193656414811946,31.5889943
0.19567193048746467,38.2027349