Merit,Run_Time
0.5609617069523364,0.0627157
0.5609617069523364,0.056299
0.5609617069523364,0.064056
0.5609617069523364,0.0461198
0.5609617069523364,0.0489598
0.5609617069523364,0.0488417
0.5609617069523364,0.0653023
0.5609617069523364,0.0389445
0.5609617069523364,0.0427002
0.5609617069523364,0.0467664
0.5609617069523364,0.0299915
0.5609617069523364,0.0507865
0.5609617069523364,0.048294
0.5609617069523364,0.043937
0.5609617069523364,0.0440303
0.5609617069523364,0.04508
0.5609617069523364,0.0476224
0.5609617069523364,0.0387076
0.5609617069523364,0.0312058
0.5609617069523364,0.0303528
0.5609617069523364,0.0285789
0.5609617069523364,0.0329423
0.5609617069523364,0.0331745
0.5609617069523364,0.0330269
0.5609617069523364,0.0323825
0.5609617069523364,0.0321695
0.5609617069523364,0.0264272
0.5609617069523364,0.0300282
0.5609617069523364,0.0279718
0.5609617069523364,0.027229