Merit,Run_Time
0.25853039882262885,0.1917065
0.25853039882262885,0.1064369
0.25853039882262885,0.095491
0.25853039882262885,0.0930214
0.25853039882262885,0.0921923
0.25853039882262885,0.0989092
0.25853039882262885,0.0994729
0.25853039882262885,0.0883576
0.25853039882262885,0.0894165
0.25853039882262885,0.1032621
0.25853039882262885,0.0922042
0.25853039882262885,0.0885228
0.25853039882262885,0.0917651
0.25853039882262885,0.0975211
0.25853039882262885,0.0966599
0.25853039882262885,0.0968873
0.25853039882262885,0.0896174
0.25853039882262885,0.0976838
0.25853039882262885,0.0981974
0.25853039882262885,0.0912628
0.25853039882262885,0.0926423
0.25853039882262885,0.1012425
0.25853039882262885,0.0903794
0.25853039882262885,0.0930122
0.25853039882262885,0.0961051
0.25853039882262885,0.0969496
0.25853039882262885,0.0914547
0.25853039882262885,0.0993381
0.25853039882262885,0.0927321
0.25853039882262885,0.0996589