Merit,Run_Time
0.14709217986344628,38.5407897
0.13991712116362315,30.8707006
0.1433907151489745,32.6445442
0.14279078442061593,31.1801937
0.1429750123886357,30.3870117
0.14547043272281965,36.2627909
0.1393047056107159,30.9413642
0.14788493871745376,41.6659619
0.14234124165158546,30.5467761
0.14545068935666364,31.5023518
0.14836078596246954,40.7279101
0.14056693822584979,30.2085354
0.14936468237343778,37.8036754
0.14023873023323402,35.9747187
0.13594936412153721,31.8230753
0.139824818554079,30.6138632
0.14374654067242015,41.3499987
0.1408151501343133,31.2784122
0.14786704281069582,39.1847291
0.13890580040840136,37.2730542
0.14237505779494547,50.1132165
0.13958433891313685,38.557907
0.1403087787777676,31.1562901
0.1419881224670105,40.3317381
0.1382483112168403,32.6624785
0.1471711590190821,40.8260544
0.14251162478563292,30.8029544
0.14344087883240017,38.1779743
0.1453065289520291,36.6178581
0.1479649969859763,33.6877627